Report
…
3 EDA and Testing

3.1 Data Cleaning

Dropped 4 missing value, their IDs are MC381,MC389,MC393,MC76.

3.2 EDA

Summary of Data:

 The output is exactly same with clients work.

## # A tibble: 24 x 9
## # Groups:   Taxa, Site [8]
##    Taxa       Site     variable       min median   mean    max    sd count
##    <chr>      <chr>    <fct>        <dbl>  <dbl>  <dbl>  <dbl> <dbl> <int>
##  1 Cottontail BAOX     d13C_VPDB   -20.5  -15.7  -16.3  -11.5   3.14     9
##  2 Cottontail BAOX     d15N_air      3.59   6.58   6.99  13.6   2.86     9
##  3 Cottontail BAOX     ap_13C_VPDB -12.8   -7.69  -8.71  -5.5   2.54     9
##  4 Cottontail Tlajinga d13C_VPDB   -21.1  -16.9  -16.7   -9.9   3.80     8
##  5 Cottontail Tlajinga d15N_air      2.77   3.88   4.30   7     1.53     8
##  6 Cottontail Tlajinga ap_13C_VPDB -13.3   -8.41  -9.25  -4.58  3.03     8
##  7 Deer       BAOX     d13C_VPDB   -20.6  -19.4  -18.8  -16.6   1.37     9
##  8 Deer       BAOX     d15N_air      3.5    4.97   5.27   6.91  1.22     9
##  9 Deer       BAOX     ap_13C_VPDB -12.8  -10.4  -10.1   -6.51  1.78     9
## 10 Deer       Tlajinga d13C_VPDB   -22.1  -18.9  -19.2  -15.8   2.47     9
## # ... with 14 more rows
…
